{
  "items": [
    {
      "id": 266,
      "title": "ADARAY",
      "description": "ADARAY",
      "content": "<p>Hatt\u0131m\u0131zda ger\u00e7ekle\u015fen teknik \u00e7al\u0131\u015fmalar nedeni ile 06.03.2026 cuma g\u00fcn\u00fc 15:00 - 18:40  aras\u0131 ADARAY hizmet vermemektedir. 19: 10 Arifiye istasyonundan seferlerine yeniden ba\u015flayacakt\u0131r.</p>",
      "startDate": "2026-03-05T15:50:00Z",
      "endDate": "2026-03-06T15:40:59.999Z",
      "lineId": 51,
      "lineTypeId": 6905,
      "slug": "a1-adaray-51",
      "lineName": "ADARAY",
      "lineNumber": "A1",
      "typeId": 918,
      "typeName": "Hat Duyuru T\u00fcrleri",
      "categoryId": 7359,
      "categoryName": "Hat Duyurusu",
      "color": "#6dcde3",
      "icon": null
    },
    {
      "id": 263,
      "title": "Duyuru",
      "description": "Duyuru",
      "content": "<h2><strong>Orta Garaj 18:45 Seferi \u0130ftar dolay\u0131s\u0131 ile Ramazan ay\u0131 boyunca 18:35 (10 dakika erken) olarak hareket edecektir. Anlay\u0131\u015f\u0131n\u0131z i\u00e7in te\u015fekk\u00fcr eder, Hay\u0131rl\u0131 Ramazanlar dileriz.</strong></h2>",
      "startDate": "2026-02-27T13:40:00Z",
      "endDate": "2026-03-19T19:35:59.999Z",
      "lineId": 29,
      "lineTypeId": 6907,
      "slug": "24-numara-o-garaj-toki-korucuk-29",
      "lineName": "O. GARAJ - TOK\u0130 - KORUCUK",
      "lineNumber": "24",
      "typeId": 918,
      "typeName": "Hat Duyuru T\u00fcrleri",
      "categoryId": 7359,
      "categoryName": "Hat Duyurusu",
      "color": "#6dcde3",
      "icon": null
    },
    {
      "id": 262,
      "title": "Hat Duyurusu",
      "description": "Hat Duyurusu",
      "content": "<p>Ramazan ay\u0131 boyunca Tarakl\u0131'dan ve Adapazar\u0131'ndan kalkan saat 18:00 ara\u00e7lar\u0131 iftar saati nedeniyle iptal edilmi\u015ftir.</p>",
      "startDate": "2026-02-27T09:32:00Z",
      "endDate": "2026-03-19T17:00:59.999Z",
      "lineId": 54,
      "lineTypeId": 7355,
      "slug": "115-numara-tarakli-donatim-garaj-54",
      "lineName": "TARAKLI - DONATIM GARAJ",
      "lineNumber": "115",
      "typeId": 918,
      "typeName": "Hat Duyuru T\u00fcrleri",
      "categoryId": 7359,
      "categoryName": "Hat Duyurusu",
      "color": "#6dcde3",
      "icon": null
    },
    {
      "id": 258,
      "title": "Ramazan",
      "description": "Ramazan duyurusu",
      "content": "<p>\ud83d\udce2\ud83d\udd4c\ud83c\udf19 <strong>DUYURU</strong> \ud83c\udf19\ud83d\udd4c\ud83d\udce2</p><p>De\u011ferli Vatanda\u015flar\u0131m\u0131z,</p><p>Ramazan ay\u0131 m\u00fcnasebetiyle, belediyemize ait toplu ta\u015f\u0131ma ara\u00e7lar\u0131m\u0131z\u0131n iftar saatine denk gelen seferleri, g\u00f6revli personelimizin oru\u00e7lar\u0131n\u0131 a\u00e7abilmelerine imk\u00e2n sa\u011flamak amac\u0131yla <strong>10 dakika gecikmeli</strong> olarak hareket edecektir.</p><p>Uygulama yaln\u0131zca iftar saatine denk gelen seferler i\u00e7in ge\u00e7erli olup, di\u011fer seferler planlanan saatlerinde devam edecektir. Vatanda\u015flar\u0131m\u0131z\u0131n ma\u011fduriyet ya\u015famamalar\u0131 ad\u0131na sefer saatlerini buna g\u00f6re takip etmeleri \u00f6nemle rica olunur.</p><p>G\u00f6sterdi\u011finiz anlay\u0131\u015f ve hassasiyet i\u00e7in te\u015fekk\u00fcr eder, t\u00fcm hem\u015fehrilerimize hay\u0131rl\u0131 Ramazanlar dileriz.</p><p>\ud83d\udce2\ud83c\udf19\ud83d\ude8d <strong>DUYURU</strong> \ud83d\ude8d\ud83c\udf19\ud83d\udce2</p><p><strong>Sakarya B\u00fcy\u00fck\u015fehir Belediyesi</strong></p><p><br></p>",
      "startDate": "2026-02-20T06:42:00Z",
      "endDate": "2026-03-19T18:39:59.999Z",
      "lineId": 4,
      "lineTypeId": 6907,
      "slug": "3-numara-d-meydani-yesiltepe-y-terminal-4",
      "lineName": "D. MEYDANI - YE\u015e\u0130LTEPE - Y. TERM\u0130NAL",
      "lineNumber": "3",
      "typeId": 918,
      "typeName": "Hat Duyuru T\u00fcrleri",
      "categoryId": 7359,
      "categoryName": "Hat Duyurusu",
      "color": "#6dcde3",
      "icon": null
    },
    {
      "id": 254,
      "title": "Ramazan",
      "description": "Ramazan duyurusu",
      "content": "<p>\ud83d\udce2\ud83d\udd4c\ud83c\udf19 <strong>DUYURU</strong> \ud83c\udf19\ud83d\udd4c\ud83d\udce2</p><p>De\u011ferli Vatanda\u015flar\u0131m\u0131z,</p><p>Ramazan ay\u0131 m\u00fcnasebetiyle, belediyemize ait toplu ta\u015f\u0131ma ara\u00e7lar\u0131m\u0131z\u0131n iftar saatine denk gelen seferleri, g\u00f6revli personelimizin oru\u00e7lar\u0131n\u0131 a\u00e7abilmelerine imk\u00e2n sa\u011flamak amac\u0131yla <strong>10 dakika gecikmeli</strong> olarak hareket edecektir.</p><p>Uygulama yaln\u0131zca iftar saatine denk gelen seferler i\u00e7in ge\u00e7erli olup, di\u011fer seferler planlanan saatlerinde devam edecektir. Vatanda\u015flar\u0131m\u0131z\u0131n ma\u011fduriyet ya\u015famamalar\u0131 ad\u0131na sefer saatlerini buna g\u00f6re takip etmeleri \u00f6nemle rica olunur.</p><p>G\u00f6sterdi\u011finiz anlay\u0131\u015f ve hassasiyet i\u00e7in te\u015fekk\u00fcr eder, t\u00fcm hem\u015fehrilerimize hay\u0131rl\u0131 Ramazanlar dileriz.</p><p>\ud83d\udce2\ud83c\udf19\ud83d\ude8d <strong>DUYURU</strong> \ud83d\ude8d\ud83c\udf19\ud83d\udce2</p><p><strong>Sakarya B\u00fcy\u00fck\u015fehir Belediyesi</strong></p><p><br></p>",
      "startDate": "2026-02-20T06:42:00Z",
      "endDate": "2026-03-19T18:39:59.999Z",
      "lineId": 8,
      "lineTypeId": 6907,
      "slug": "7-numara-d-meydani-yildiztepe-y-terminal-8",
      "lineName": "D. MEYDANI - YILDIZTEPE - Y. TERM\u0130NAL",
      "lineNumber": "7",
      "typeId": 918,
      "typeName": "Hat Duyuru T\u00fcrleri",
      "categoryId": 7359,
      "categoryName": "Hat Duyurusu",
      "color": "#6dcde3",
      "icon": null
    },
    {
      "id": 257,
      "title": "Ramazan",
      "description": "Ramazan duyurusu",
      "content": "<p>\ud83d\udce2\ud83d\udd4c\ud83c\udf19 <strong>DUYURU</strong> \ud83c\udf19\ud83d\udd4c\ud83d\udce2</p><p>De\u011ferli Vatanda\u015flar\u0131m\u0131z,</p><p>Ramazan ay\u0131 m\u00fcnasebetiyle, belediyemize ait toplu ta\u015f\u0131ma ara\u00e7lar\u0131m\u0131z\u0131n iftar saatine denk gelen seferleri, g\u00f6revli personelimizin oru\u00e7lar\u0131n\u0131 a\u00e7abilmelerine imk\u00e2n sa\u011flamak amac\u0131yla <strong>10 dakika gecikmeli</strong> olarak hareket edecektir.</p><p>Uygulama yaln\u0131zca iftar saatine denk gelen seferler i\u00e7in ge\u00e7erli olup, di\u011fer seferler planlanan saatlerinde devam edecektir. Vatanda\u015flar\u0131m\u0131z\u0131n ma\u011fduriyet ya\u015famamalar\u0131 ad\u0131na sefer saatlerini buna g\u00f6re takip etmeleri \u00f6nemle rica olunur.</p><p>G\u00f6sterdi\u011finiz anlay\u0131\u015f ve hassasiyet i\u00e7in te\u015fekk\u00fcr eder, t\u00fcm hem\u015fehrilerimize hay\u0131rl\u0131 Ramazanlar dileriz.</p><p>\ud83d\udce2\ud83c\udf19\ud83d\ude8d <strong>DUYURU</strong> \ud83d\ude8d\ud83c\udf19\ud83d\udce2</p><p><strong>Sakarya B\u00fcy\u00fck\u015fehir Belediyesi</strong></p><p><br></p>",
      "startDate": "2026-02-20T06:42:00Z",
      "endDate": "2026-03-19T18:39:59.999Z",
      "lineId": 5,
      "lineTypeId": 6907,
      "slug": "4-numara-kampus-sakaryapark-5",
      "lineName": "KAMP\u00dcS - SAKARYAPARK",
      "lineNumber": "4",
      "typeId": 918,
      "typeName": "Hat Duyuru T\u00fcrleri",
      "categoryId": 7359,
      "categoryName": "Hat Duyurusu",
      "color": "#6dcde3",
      "icon": null
    },
    {
      "id": 255,
      "title": "Ramazan",
      "description": "Ramazan duyurusu",
      "content": "<p>\ud83d\udce2\ud83d\udd4c\ud83c\udf19 <strong>DUYURU</strong> \ud83c\udf19\ud83d\udd4c\ud83d\udce2</p><p>De\u011ferli Vatanda\u015flar\u0131m\u0131z,</p><p>Ramazan ay\u0131 m\u00fcnasebetiyle, belediyemize ait toplu ta\u015f\u0131ma ara\u00e7lar\u0131m\u0131z\u0131n iftar saatine denk gelen seferleri, g\u00f6revli personelimizin oru\u00e7lar\u0131n\u0131 a\u00e7abilmelerine imk\u00e2n sa\u011flamak amac\u0131yla <strong>10 dakika gecikmeli</strong> olarak hareket edecektir.</p><p>Uygulama yaln\u0131zca iftar saatine denk gelen seferler i\u00e7in ge\u00e7erli olup, di\u011fer seferler planlanan saatlerinde devam edecektir. Vatanda\u015flar\u0131m\u0131z\u0131n ma\u011fduriyet ya\u015famamalar\u0131 ad\u0131na sefer saatlerini buna g\u00f6re takip etmeleri \u00f6nemle rica olunur.</p><p>G\u00f6sterdi\u011finiz anlay\u0131\u015f ve hassasiyet i\u00e7in te\u015fekk\u00fcr eder, t\u00fcm hem\u015fehrilerimize hay\u0131rl\u0131 Ramazanlar dileriz.</p><p>\ud83d\udce2\ud83c\udf19\ud83d\ude8d <strong>DUYURU</strong> \ud83d\ude8d\ud83c\udf19\ud83d\udce2</p><p><strong>Sakarya B\u00fcy\u00fck\u015fehir Belediyesi</strong></p><p><br></p>",
      "startDate": "2026-02-20T06:42:00Z",
      "endDate": "2026-03-19T18:39:59.999Z",
      "lineId": 7,
      "lineTypeId": 6907,
      "slug": "6-numara-ogaraj-otuzikievler-beskopru-kampus-7",
      "lineName": "O.GARAJ - OTUZ\u0130K\u0130EVLER - BE\u015eK\u00d6PR\u00dc - KAMP\u00dcS",
      "lineNumber": "6",
      "typeId": 918,
      "typeName": "Hat Duyuru T\u00fcrleri",
      "categoryId": 7359,
      "categoryName": "Hat Duyurusu",
      "color": "#6dcde3",
      "icon": null
    },
    {
      "id": 256,
      "title": "Ramazan",
      "description": "Ramazan duyurusu",
      "content": "<p>\ud83d\udce2\ud83d\udd4c\ud83c\udf19 <strong>DUYURU</strong> \ud83c\udf19\ud83d\udd4c\ud83d\udce2</p><p>De\u011ferli Vatanda\u015flar\u0131m\u0131z,</p><p>Ramazan ay\u0131 m\u00fcnasebetiyle, belediyemize ait toplu ta\u015f\u0131ma ara\u00e7lar\u0131m\u0131z\u0131n iftar saatine denk gelen seferleri, g\u00f6revli personelimizin oru\u00e7lar\u0131n\u0131 a\u00e7abilmelerine imk\u00e2n sa\u011flamak amac\u0131yla <strong>10 dakika gecikmeli</strong> olarak hareket edecektir.</p><p>Uygulama yaln\u0131zca iftar saatine denk gelen seferler i\u00e7in ge\u00e7erli olup, di\u011fer seferler planlanan saatlerinde devam edecektir. Vatanda\u015flar\u0131m\u0131z\u0131n ma\u011fduriyet ya\u015famamalar\u0131 ad\u0131na sefer saatlerini buna g\u00f6re takip etmeleri \u00f6nemle rica olunur.</p><p>G\u00f6sterdi\u011finiz anlay\u0131\u015f ve hassasiyet i\u00e7in te\u015fekk\u00fcr eder, t\u00fcm hem\u015fehrilerimize hay\u0131rl\u0131 Ramazanlar dileriz.</p><p>\ud83d\udce2\ud83c\udf19\ud83d\ude8d <strong>DUYURU</strong> \ud83d\ude8d\ud83c\udf19\ud83d\udce2</p><p><strong>Sakarya B\u00fcy\u00fck\u015fehir Belediyesi</strong></p><p><br></p>",
      "startDate": "2026-02-20T06:42:00Z",
      "endDate": "2026-03-19T18:39:59.999Z",
      "lineId": 6,
      "lineTypeId": 6907,
      "slug": "5-numara-1-gecit-dortyol-beskopru-kampus-6",
      "lineName": "1. GE\u00c7\u0130T - D\u00d6RTYOL - BE\u015eK\u00d6PR\u00dc - KAMP\u00dcS",
      "lineNumber": "5",
      "typeId": 918,
      "typeName": "Hat Duyuru T\u00fcrleri",
      "categoryId": 7359,
      "categoryName": "Hat Duyurusu",
      "color": "#6dcde3",
      "icon": null
    },
    {
      "id": 259,
      "title": "Ramazan",
      "description": "Ramazan duyurusu",
      "content": "<p>\ud83d\udce2\ud83d\udd4c\ud83c\udf19 <strong>DUYURU</strong> \ud83c\udf19\ud83d\udd4c\ud83d\udce2</p><p>De\u011ferli Vatanda\u015flar\u0131m\u0131z,</p><p>Ramazan ay\u0131 m\u00fcnasebetiyle, belediyemize ait toplu ta\u015f\u0131ma ara\u00e7lar\u0131m\u0131z\u0131n iftar saatine denk gelen seferleri, g\u00f6revli personelimizin oru\u00e7lar\u0131n\u0131 a\u00e7abilmelerine imk\u00e2n sa\u011flamak amac\u0131yla <strong>10 dakika gecikmeli</strong> olarak hareket edecektir.</p><p>Uygulama yaln\u0131zca iftar saatine denk gelen seferler i\u00e7in ge\u00e7erli olup, di\u011fer seferler planlanan saatlerinde devam edecektir. Vatanda\u015flar\u0131m\u0131z\u0131n ma\u011fduriyet ya\u015famamalar\u0131 ad\u0131na sefer saatlerini buna g\u00f6re takip etmeleri \u00f6nemle rica olunur.</p><p>G\u00f6sterdi\u011finiz anlay\u0131\u015f ve hassasiyet i\u00e7in te\u015fekk\u00fcr eder, t\u00fcm hem\u015fehrilerimize hay\u0131rl\u0131 Ramazanlar dileriz.</p><p>\ud83d\udce2\ud83c\udf19\ud83d\ude8d <strong>DUYURU</strong> \ud83d\ude8d\ud83c\udf19\ud83d\udce2</p><p><strong>Sakarya B\u00fcy\u00fck\u015fehir Belediyesi</strong></p><p><br></p>",
      "startDate": "2026-02-20T06:42:00Z",
      "endDate": "2026-03-19T18:39:59.999Z",
      "lineId": 3,
      "lineTypeId": 6907,
      "slug": "2-numara-orta-garaj-hizir-ilyas-3",
      "lineName": "ORTA GARAJ - HIZIR \u0130LYAS",
      "lineNumber": "2",
      "typeId": 918,
      "typeName": "Hat Duyuru T\u00fcrleri",
      "categoryId": 7359,
      "categoryName": "Hat Duyurusu",
      "color": "#6dcde3",
      "icon": null
    },
    {
      "id": 260,
      "title": "Ramazan",
      "description": "Ramazan duyurusu",
      "content": "<p>\ud83d\udce2\ud83d\udd4c\ud83c\udf19 <strong>DUYURU</strong> \ud83c\udf19\ud83d\udd4c\ud83d\udce2</p><p>De\u011ferli Vatanda\u015flar\u0131m\u0131z,</p><p>Ramazan ay\u0131 m\u00fcnasebetiyle, belediyemize ait toplu ta\u015f\u0131ma ara\u00e7lar\u0131m\u0131z\u0131n iftar saatine denk gelen seferleri, g\u00f6revli personelimizin oru\u00e7lar\u0131n\u0131 a\u00e7abilmelerine imk\u00e2n sa\u011flamak amac\u0131yla <strong>10 dakika gecikmeli</strong> olarak hareket edecektir.</p><p>Uygulama yaln\u0131zca iftar saatine denk gelen seferler i\u00e7in ge\u00e7erli olup, di\u011fer seferler planlanan saatlerinde devam edecektir. Vatanda\u015flar\u0131m\u0131z\u0131n ma\u011fduriyet ya\u015famamalar\u0131 ad\u0131na sefer saatlerini buna g\u00f6re takip etmeleri \u00f6nemle rica olunur.</p><p>G\u00f6sterdi\u011finiz anlay\u0131\u015f ve hassasiyet i\u00e7in te\u015fekk\u00fcr eder, t\u00fcm hem\u015fehrilerimize hay\u0131rl\u0131 Ramazanlar dileriz.</p><p>\ud83d\udce2\ud83c\udf19\ud83d\ude8d <strong>DUYURU</strong> \ud83d\ude8d\ud83c\udf19\ud83d\udce2</p><p><strong>Sakarya B\u00fcy\u00fck\u015fehir Belediyesi</strong></p><p><br></p>",
      "startDate": "2026-02-20T06:42:00Z",
      "endDate": "2026-03-19T18:39:59.999Z",
      "lineId": 2,
      "lineTypeId": 6907,
      "slug": "1-numara-sakaryapark-kupculer-k-terminal-2",
      "lineName": "SAKARYAPARK - K\u00dcP\u00c7\u00dcLER - K. TERM\u0130NAL",
      "lineNumber": "1",
      "typeId": 918,
      "typeName": "Hat Duyuru T\u00fcrleri",
      "categoryId": 7359,
      "categoryName": "Hat Duyurusu",
      "color": "#6dcde3",
      "icon": null
    }
  ],
  "pageNumber": 1,
  "totalPages": 7,
  "totalCount": 67,
  "pageSize": 10,
  "hasPreviousPage": false,
  "hasNextPage": true
}